…
  - We do this because a good 80 percent of the data is just from this
    one site (\~64k records)

<!-- end list -->

``` r
# most data is from duke
lemurs %>%
    group_by(birth_institution) %>%
    summarize(n = n(), percent = round(n()/nrow(lemurs) * 100,
        2)) %>%
    arrange(-n)
```

    ## # A tibble: 88 x 3
    ##    birth_institution                        n percent
    ##    <chr>                                <int>   <dbl>
    ##  1 Duke Lemur Center                    64443   78.0 
    ##  2 Madagascar /                          4931    5.97
    ##  3 General Public                        1996    2.42
    ##  4 Museum National d'Histoire Naturelle  1929    2.34
    ##  5 Unknown Location                       850    1.03
    ##  6 Cincinnati Zoo & Botanical Garden      550    0.67
    ##  7 N. VIETNAM                             523    0.63
    ##  8 Skansen Akvariet                       470    0.57
    ##  9 Comoros /                              464    0.56
    ## 10 Parc Zoologique de Paris (MNHN)        464    0.56
    ## # ... with 78 more rows
…
